<?xml version="1.0" encoding="utf-8"  standalone="no"?>
<svg 
 width="600" height="480"
 viewBox="0 0 600 480"
 xmlns="http://www.w3.org/2000/svg"
 xmlns:xlink="http://www.w3.org/1999/xlink"
>

<title>Gnuplot</title>
<desc>Produced by GNUPLOT 5.2 patchlevel 4 </desc>

<g id="gnuplot_canvas">

<rect x="0" y="0" width="600" height="480" fill="none"/>
<defs>

	<circle id='gpDot' r='0.5' stroke-width='0.5' stroke='currentColor'/>
	<path id='gpPt0' stroke-width='0.222' stroke='currentColor' d='M-1,0 h2 M0,-1 v2'/>
	<path id='gpPt1' stroke-width='0.222' stroke='currentColor' d='M-1,-1 L1,1 M1,-1 L-1,1'/>
	<path id='gpPt2' stroke-width='0.222' stroke='currentColor' d='M-1,0 L1,0 M0,-1 L0,1 M-1,-1 L1,1 M-1,1 L1,-1'/>
	<rect id='gpPt3' stroke-width='0.222' stroke='currentColor' x='-1' y='-1' width='2' height='2'/>
	<rect id='gpPt4' stroke-width='0.222' stroke='currentColor' fill='currentColor' x='-1' y='-1' width='2' height='2'/>
	<circle id='gpPt5' stroke-width='0.222' stroke='currentColor' cx='0' cy='0' r='1'/>
	<use xlink:href='#gpPt5' id='gpPt6' fill='currentColor' stroke='none'/>
	<path id='gpPt7' stroke-width='0.222' stroke='currentColor' d='M0,-1.33 L-1.33,0.67 L1.33,0.67 z'/>
	<use xlink:href='#gpPt7' id='gpPt8' fill='currentColor' stroke='none'/>
	<use xlink:href='#gpPt7' id='gpPt9' stroke='currentColor' transform='rotate(180)'/>
	<use xlink:href='#gpPt9' id='gpPt10' fill='currentColor' stroke='none'/>
	<use xlink:href='#gpPt3' id='gpPt11' stroke='currentColor' transform='rotate(45)'/>
	<use xlink:href='#gpPt11' id='gpPt12' fill='currentColor' stroke='none'/>
	<path id='gpPt13' stroke-width='0.222' stroke='currentColor' d='M0,1.330 L1.265,0.411 L0.782,-1.067 L-0.782,-1.076 L-1.265,0.411 z'/>
	<use xlink:href='#gpPt13' id='gpPt14' fill='currentColor' stroke='none'/>
	<filter id='textbox' filterUnits='objectBoundingBox' x='0' y='0' height='1' width='1'>
	  <feFlood flood-color='white' flood-opacity='1' result='bgnd'/>
	  <feComposite in='SourceGraphic' in2='bgnd' operator='atop'/>
	</filter>
	<filter id='greybox' filterUnits='objectBoundingBox' x='0' y='0' height='1' width='1'>
	  <feFlood flood-color='lightgrey' flood-opacity='1' result='grey'/>
	  <feComposite in='SourceGraphic' in2='grey' operator='atop'/>
	</filter>
</defs>
<g fill="none" color="white" stroke="currentColor" stroke-width="1.00" stroke-linecap="butt" stroke-linejoin="miter">
</g>
<g fill="none" color="black" stroke="currentColor" stroke-width="1.00" stroke-linecap="butt" stroke-linejoin="miter">
</g>
<g fill="none" color="black" stroke="black" stroke-width="0.50" stroke-linecap="butt" stroke-linejoin="miter">
</g>
<g fill="none" color="gray" stroke="currentColor" stroke-width="0.50" stroke-linecap="butt" stroke-linejoin="miter">
	<path stroke='gray' stroke-dasharray='2,4' class="gridline"  d='M63.6,422.4 L575.0,422.4  '/></g>
<g fill="none" color="gray" stroke="gray" stroke-width="1.00" stroke-linecap="butt" stroke-linejoin="miter">
</g>
<g fill="none" color="black" stroke="currentColor" stroke-width="1.00" stroke-linecap="butt" stroke-linejoin="miter">
	<path stroke='black'  d='M63.6,422.4 L72.6,422.4 M575.0,422.4 L566.0,422.4  '/>	<g transform="translate(55.3,426.3)" stroke="none" fill="black" font-family="Arial" font-size="12.00"  text-anchor="end">
		<text><tspan font-family="Arial" > 0</tspan></text>
	</g>
</g>
<g fill="none" color="black" stroke="currentColor" stroke-width="1.00" stroke-linecap="butt" stroke-linejoin="miter">
</g>
<g fill="none" color="black" stroke="black" stroke-width="0.50" stroke-linecap="butt" stroke-linejoin="miter">
</g>
<g fill="none" color="gray" stroke="currentColor" stroke-width="0.50" stroke-linecap="butt" stroke-linejoin="miter">
	<path stroke='gray' stroke-dasharray='2,4' class="gridline"  d='M63.6,373.0 L575.0,373.0  '/></g>
<g fill="none" color="gray" stroke="gray" stroke-width="1.00" stroke-linecap="butt" stroke-linejoin="miter">
</g>
<g fill="none" color="black" stroke="currentColor" stroke-width="1.00" stroke-linecap="butt" stroke-linejoin="miter">
	<path stroke='black'  d='M63.6,373.0 L72.6,373.0 M575.0,373.0 L566.0,373.0  '/>	<g transform="translate(55.3,376.9)" stroke="none" fill="black" font-family="Arial" font-size="12.00"  text-anchor="end">
		<text><tspan font-family="Arial" > 2</tspan></text>
	</g>
</g>
<g fill="none" color="black" stroke="currentColor" stroke-width="1.00" stroke-linecap="butt" stroke-linejoin="miter">
</g>
<g fill="none" color="black" stroke="black" stroke-width="0.50" stroke-linecap="butt" stroke-linejoin="miter">
</g>
<g fill="none" color="gray" stroke="currentColor" stroke-width="0.50" stroke-linecap="butt" stroke-linejoin="miter">
	<path stroke='gray' stroke-dasharray='2,4' class="gridline"  d='M63.6,323.6 L575.0,323.6  '/></g>
<g fill="none" color="gray" stroke="gray" stroke-width="1.00" stroke-linecap="butt" stroke-linejoin="miter">
</g>
<g fill="none" color="black" stroke="currentColor" stroke-width="1.00" stroke-linecap="butt" stroke-linejoin="miter">
	<path stroke='black'  d='M63.6,323.6 L72.6,323.6 M575.0,323.6 L566.0,323.6  '/>	<g transform="translate(55.3,327.5)" stroke="none" fill="black" font-family="Arial" font-size="12.00"  text-anchor="end">
		<text><tspan font-family="Arial" > 4</tspan></text>
	</g>
</g>
<g fill="none" color="black" stroke="currentColor" stroke-width="1.00" stroke-linecap="butt" stroke-linejoin="miter">
</g>
<g fill="none" color="black" stroke="black" stroke-width="0.50" stroke-linecap="butt" stroke-linejoin="miter">
</g>
<g fill="none" color="gray" stroke="currentColor" stroke-width="0.50" stroke-linecap="butt" stroke-linejoin="miter">
	<path stroke='gray' stroke-dasharray='2,4' class="gridline"  d='M63.6,274.2 L575.0,274.2  '/></g>
<g fill="none" color="gray" stroke="gray" stroke-width="1.00" stroke-linecap="butt" stroke-linejoin="miter">
</g>
<g fill="none" color="black" stroke="currentColor" stroke-width="1.00" stroke-linecap="butt" stroke-linejoin="miter">
	<path stroke='black'  d='M63.6,274.2 L72.6,274.2 M575.0,274.2 L566.0,274.2  '/>	<g transform="translate(55.3,278.1)" stroke="none" fill="black" font-family="Arial" font-size="12.00"  text-anchor="end">
		<text><tspan font-family="Arial" > 6</tspan></text>
	</g>
</g>
<g fill="none" color="black" stroke="currentColor" stroke-width="1.00" stroke-linecap="butt" stroke-linejoin="miter">
</g>
<g fill="none" color="black" stroke="black" stroke-width="0.50" stroke-linecap="butt" stroke-linejoin="miter">
</g>
<g fill="none" color="gray" stroke="currentColor" stroke-width="0.50" stroke-linecap="butt" stroke-linejoin="miter">
	<path stroke='gray' stroke-dasharray='2,4' class="gridline"  d='M63.6,224.9 L575.0,224.9  '/></g>
<g fill="none" color="gray" stroke="gray" stroke-width="1.00" stroke-linecap="butt" stroke-linejoin="miter">
</g>
<g fill="none" color="black" stroke="currentColor" stroke-width="1.00" stroke-linecap="butt" stroke-linejoin="miter">
	<path stroke='black'  d='M63.6,224.9 L72.6,224.9 M575.0,224.9 L566.0,224.9  '/>	<g transform="translate(55.3,228.8)" stroke="none" fill="black" font-family="Arial" font-size="12.00"  text-anchor="end">
		<text><tspan font-family="Arial" > 8</tspan></text>
	</g>
</g>
<g fill="none" color="black" stroke="currentColor" stroke-width="1.00" stroke-linecap="butt" stroke-linejoin="miter">
</g>
<g fill="none" color="black" stroke="black" stroke-width="0.50" stroke-linecap="butt" stroke-linejoin="miter">
</g>
<g fill="none" color="gray" stroke="currentColor" stroke-width="0.50" stroke-linecap="butt" stroke-linejoin="miter">
	<path stroke='gray' stroke-dasharray='2,4' class="gridline"  d='M63.6,175.5 L575.0,175.5  '/></g>
<g fill="none" color="gray" stroke="gray" stroke-width="1.00" stroke-linecap="butt" stroke-linejoin="miter">
</g>
<g fill="none" color="black" stroke="currentColor" stroke-width="1.00" stroke-linecap="butt" stroke-linejoin="miter">
	<path stroke='black'  d='M63.6,175.5 L72.6,175.5 M575.0,175.5 L566.0,175.5  '/>	<g transform="translate(55.3,179.4)" stroke="none" fill="black" font-family="Arial" font-size="12.00"  text-anchor="end">
		<text><tspan font-family="Arial" > 10</tspan></text>
	</g>
</g>
<g fill="none" color="black" stroke="currentColor" stroke-width="1.00" stroke-linecap="butt" stroke-linejoin="miter">
</g>
<g fill="none" color="black" stroke="black" stroke-width="0.50" stroke-linecap="butt" stroke-linejoin="miter">
</g>
<g fill="none" color="gray" stroke="currentColor" stroke-width="0.50" stroke-linecap="butt" stroke-linejoin="miter">
	<path stroke='gray' stroke-dasharray='2,4' class="gridline"  d='M63.6,126.1 L575.0,126.1  '/></g>
<g fill="none" color="gray" stroke="gray" stroke-width="1.00" stroke-linecap="butt" stroke-linejoin="miter">
</g>
<g fill="none" color="black" stroke="currentColor" stroke-width="1.00" stroke-linecap="butt" stroke-linejoin="miter">
	<path stroke='black'  d='M63.6,126.1 L72.6,126.1 M575.0,126.1 L566.0,126.1  '/>	<g transform="translate(55.3,130.0)" stroke="none" fill="black" font-family="Arial" font-size="12.00"  text-anchor="end">
		<text><tspan font-family="Arial" > 12</tspan></text>
	</g>
</g>
<g fill="none" color="black" stroke="currentColor" stroke-width="1.00" stroke-linecap="butt" stroke-linejoin="miter">
	<path stroke='black'  d='M63.6,422.4 L63.6,413.4 M63.6,126.1 L63.6,135.1  '/>	<g transform="translate(63.6,444.3)" stroke="none" fill="black" font-family="Arial" font-size="12.00"  text-anchor="middle">
		<text><tspan font-family="Arial" > 0</tspan></text>
	</g>
</g>
<g fill="none" color="black" stroke="currentColor" stroke-width="1.00" stroke-linecap="butt" stroke-linejoin="miter">
	<path stroke='black'  d='M148.8,422.4 L148.8,413.4 M148.8,126.1 L148.8,135.1  '/>	<g transform="translate(148.8,444.3)" stroke="none" fill="black" font-family="Arial" font-size="12.00"  text-anchor="middle">
		<text><tspan font-family="Arial" > 2</tspan></text>
	</g>
</g>
<g fill="none" color="black" stroke="currentColor" stroke-width="1.00" stroke-linecap="butt" stroke-linejoin="miter">
	<path stroke='black'  d='M234.1,422.4 L234.1,413.4 M234.1,126.1 L234.1,135.1  '/>	<g transform="translate(234.1,444.3)" stroke="none" fill="black" font-family="Arial" font-size="12.00"  text-anchor="middle">
		<text><tspan font-family="Arial" > 4</tspan></text>
	</g>
</g>
<g fill="none" color="black" stroke="currentColor" stroke-width="1.00" stroke-linecap="butt" stroke-linejoin="miter">
	<path stroke='black'  d='M319.3,422.4 L319.3,413.4 M319.3,126.1 L319.3,135.1  '/>	<g transform="translate(319.3,444.3)" stroke="none" fill="black" font-family="Arial" font-size="12.00"  text-anchor="middle">
		<text><tspan font-family="Arial" > 6</tspan></text>
	</g>
</g>
<g fill="none" color="black" stroke="currentColor" stroke-width="1.00" stroke-linecap="butt" stroke-linejoin="miter">
	<path stroke='black'  d='M404.5,422.4 L404.5,413.4 M404.5,126.1 L404.5,135.1  '/>	<g transform="translate(404.5,444.3)" stroke="none" fill="black" font-family="Arial" font-size="12.00"  text-anchor="middle">
		<text><tspan font-family="Arial" > 8</tspan></text>
	</g>
</g>
<g fill="none" color="black" stroke="currentColor" stroke-width="1.00" stroke-linecap="butt" stroke-linejoin="miter">
	<path stroke='black'  d='M489.8,422.4 L489.8,413.4 M489.8,126.1 L489.8,135.1  '/>	<g transform="translate(489.8,444.3)" stroke="none" fill="black" font-family="Arial" font-size="12.00"  text-anchor="middle">
		<text><tspan font-family="Arial" > 10</tspan></text>
	</g>
</g>
<g fill="none" color="black" stroke="currentColor" stroke-width="1.00" stroke-linecap="butt" stroke-linejoin="miter">
	<path stroke='black'  d='M575.0,422.4 L575.0,413.4 M575.0,126.1 L575.0,135.1  '/>	<g transform="translate(575.0,444.3)" stroke="none" fill="black" font-family="Arial" font-size="12.00"  text-anchor="middle">
		<text><tspan font-family="Arial" > 12</tspan></text>
	</g>
</g>
<g fill="none" color="black" stroke="currentColor" stroke-width="1.00" stroke-linecap="butt" stroke-linejoin="miter">
</g>
<g fill="none" color="black" stroke="currentColor" stroke-width="1.00" stroke-linecap="butt" stroke-linejoin="miter">
	<path stroke='black'  d='M63.6,126.1 L63.6,422.4 L575.0,422.4 L575.0,126.1 L63.6,126.1 Z  '/></g>
<g fill="none" color="black" stroke="currentColor" stroke-width="1.00" stroke-linecap="butt" stroke-linejoin="miter">
	<g transform="translate(16.3,274.3) rotate(270)" stroke="none" fill="black" font-family="Arial" font-size="12.00"  text-anchor="middle">
		<text><tspan font-family="Arial" >mbps</tspan></text>
	</g>
</g>
<g fill="none" color="black" stroke="currentColor" stroke-width="1.00" stroke-linecap="butt" stroke-linejoin="miter">
	<g transform="translate(319.3,471.3)" stroke="none" fill="black" font-family="Arial" font-size="12.00"  text-anchor="middle">
		<text><tspan font-family="Arial" >Time in s</tspan></text>
	</g>
</g>
<g fill="none" color="black" stroke="currentColor" stroke-width="1.00" stroke-linecap="butt" stroke-linejoin="miter">
	<g transform="translate(319.3,31.0)" stroke="none" fill="black" font-family="Arial" font-size="12.00"  text-anchor="middle">
		<text><tspan font-family="Arial" >HTTPS via HTTP/1.1</tspan></text>
	</g>
	<g transform="translate(319.3,49.0)" stroke="none" fill="black" font-family="Arial" font-size="12.00"  text-anchor="middle">
		<text><tspan font-family="Arial" > 500MBit/s Cable</tspan></text>
	</g>
	<g transform="translate(319.3,67.0)" stroke="none" fill="black" font-family="Arial" font-size="12.00"  text-anchor="middle">
		<text><tspan font-family="Arial" > wget 1.19.5 options: -q --no-config -O/tmp/xxx -r</tspan></text>
	</g>
	<g transform="translate(319.3,85.0)" stroke="none" fill="black" font-family="Arial" font-size="12.00"  text-anchor="middle">
		<text><tspan font-family="Arial" > wget2 1.99.1 options: -q --no-config -O/dev/null -r</tspan></text>
	</g>
	<g transform="translate(319.3,103.0)" stroke="none" fill="black" font-family="Arial" font-size="12.00"  text-anchor="middle">
		<text></text>
	</g>
</g>
	<g id="gnuplot_plot_1" ><title>wget</title>
<g fill="none" color="black" stroke="currentColor" stroke-width="1.00" stroke-linecap="butt" stroke-linejoin="miter">
	<g transform="translate(507.9,148.0)" stroke="none" fill="black" font-family="Arial" font-size="12.00"  text-anchor="end">
		<text><tspan font-family="Arial" >wget</tspan></text>
	</g>
</g>
<g fill="none" color="black" stroke="currentColor" stroke-width="1.00" stroke-linecap="butt" stroke-linejoin="miter">
	<path stroke='rgb(148,   0, 211)'  d='M516.2,148.6 L558.4,148.6 L558.4,139.6 L516.2,139.6 L516.2,148.6 Z  '/>	<path stroke='rgb(148,   0, 211)'  d='M63.6,422.4 L63.6,422.0 L65.7,422.0 L65.7,422.4 L63.6,422.4 Z  '/>	<path stroke='rgb(148,   0, 211)'  d='M65.7,422.4 L65.7,399.7 L70.0,399.7 L70.0,422.4 L65.7,422.4 Z  '/>	<path stroke='rgb(148,   0, 211)'  d='M70.0,422.4 L70.0,419.1 L74.3,419.1 L74.3,422.4 L70.0,422.4 Z  '/>	<path stroke='rgb(148,   0, 211)'  d='M74.3,422.4 L74.3,386.7 L78.5,386.7 L78.5,422.4 L74.3,422.4 Z  '/>	<path stroke='rgb(148,   0, 211)'  d='M78.5,422.4 L78.5,341.8 L82.8,341.8 L82.8,422.4 L78.5,422.4 Z  '/>	<path stroke='rgb(148,   0, 211)'  d='M82.8,422.4 L82.8,278.0 L87.0,278.0 L87.0,422.4 L82.8,422.4 Z  '/>	<path stroke='rgb(148,   0, 211)'  d='M87.0,422.4 L87.0,417.0 L91.3,417.0 L91.3,422.4 L87.0,422.4 Z  '/>	<path stroke='rgb(148,   0, 211)'  d='M91.3,422.4 L91.3,411.4 L95.6,411.4 L95.6,422.4 L91.3,422.4 Z  '/>	<path stroke='rgb(148,   0, 211)'  d='M95.6,422.4 L95.6,399.6 L99.8,399.6 L99.8,422.4 L95.6,422.4 Z  '/>	<path stroke='rgb(148,   0, 211)'  d='M99.8,422.4 L99.8,381.7 L104.1,381.7 L104.1,422.4 L99.8,422.4 Z  '/>	<path stroke='rgb(148,   0, 211)'  d='M104.1,422.4 L104.1,409.5 L108.3,409.5 L108.3,422.4 L104.1,422.4 Z  '/>	<path stroke='rgb(148,   0, 211)'  d='M108.3,422.4 L108.3,415.9 L112.6,415.9 L112.6,422.4 L108.3,422.4 Z  '/>	<path stroke='rgb(148,   0, 211)'  d='M112.6,422.4 L112.6,417.3 L116.9,417.3 L116.9,422.4 L112.6,422.4 Z  '/>	<path stroke='rgb(148,   0, 211)'  d='M116.9,422.4 L116.9,415.1 L121.1,415.1 L121.1,422.4 L116.9,422.4 Z  '/>	<path stroke='rgb(148,   0, 211)'  d='M121.1,422.4 L121.1,415.9 L125.4,415.9 L125.4,422.4 L121.1,422.4 Z  '/>	<path stroke='rgb(148,   0, 211)'  d='M125.4,422.4 L125.4,417.5 L129.7,417.5 L129.7,422.4 L125.4,422.4 Z  '/>	<path stroke='rgb(148,   0, 211)'  d='M129.7,422.4 L129.7,415.9 L133.9,415.9 L133.9,422.4 L129.7,422.4 Z  '/>	<path stroke='rgb(148,   0, 211)'  d='M133.9,422.4 L133.9,416.0 L138.2,416.0 L138.2,422.4 L133.9,422.4 Z  '/>	<path stroke='rgb(148,   0, 211)'  d='M138.2,422.4 L138.2,415.9 L142.4,415.9 L142.4,422.4 L138.2,422.4 Z  '/>	<path stroke='rgb(148,   0, 211)'  d='M142.4,422.4 L142.4,415.9 L146.7,415.9 L146.7,422.4 L142.4,422.4 Z  '/>	<path stroke='rgb(148,   0, 211)'  d='M146.7,422.4 L146.7,417.5 L151.0,417.5 L151.0,422.4 L146.7,422.4 Z  '/>	<path stroke='rgb(148,   0, 211)'  d='M151.0,422.4 L151.0,416.0 L155.2,416.0 L155.2,422.4 L151.0,422.4 Z  '/>	<path stroke='rgb(148,   0, 211)'  d='M155.2,422.4 L155.2,415.5 L159.5,415.5 L159.5,422.4 L155.2,422.4 Z  '/>	<path stroke='rgb(148,   0, 211)'  d='M159.5,422.4 L159.5,415.9 L163.7,415.9 L163.7,422.4 L159.5,422.4 Z  '/>	<path stroke='rgb(148,   0, 211)'  d='M163.7,422.4 L163.7,417.5 L168.0,417.5 L168.0,422.4 L163.7,422.4 Z  '/>	<path stroke='rgb(148,   0, 211)'  d='M168.0,422.4 L168.0,415.9 L172.3,415.9 L172.3,422.4 L168.0,422.4 Z  '/>	<path stroke='rgb(148,   0, 211)'  d='M172.3,422.4 L172.3,415.9 L176.5,415.9 L176.5,422.4 L172.3,422.4 Z  '/>	<path stroke='rgb(148,   0, 211)'  d='M176.5,422.4 L176.5,415.8 L180.8,415.8 L180.8,422.4 L176.5,422.4 Z  '/>	<path stroke='rgb(148,   0, 211)'  d='M180.8,422.4 L180.8,415.8 L185.1,415.8 L185.1,422.4 L180.8,422.4 Z  '/>	<path stroke='rgb(148,   0, 211)'  d='M185.1,422.4 L185.1,417.5 L189.3,417.5 L189.3,422.4 L185.1,422.4 Z  '/>	<path stroke='rgb(148,   0, 211)'  d='M189.3,422.4 L189.3,415.9 L193.6,415.9 L193.6,422.4 L189.3,422.4 Z  '/>	<path stroke='rgb(148,   0, 211)'  d='M193.6,422.4 L193.6,415.8 L197.8,415.8 L197.8,422.4 L193.6,422.4 Z  '/>	<path stroke='rgb(148,   0, 211)'  d='M197.8,422.4 L197.8,415.8 L202.1,415.8 L202.1,422.4 L197.8,422.4 Z  '/>	<path stroke='rgb(148,   0, 211)'  d='M202.1,422.4 L202.1,417.5 L206.4,417.5 L206.4,422.4 L202.1,422.4 Z  '/>	<path stroke='rgb(148,   0, 211)'  d='M206.4,422.4 L206.4,415.9 L210.6,415.9 L210.6,422.4 L206.4,422.4 Z  '/>	<path stroke='rgb(148,   0, 211)'  d='M210.6,422.4 L210.6,415.9 L214.9,415.9 L214.9,422.4 L210.6,422.4 Z  '/>	<path stroke='rgb(148,   0, 211)'  d='M214.9,422.4 L214.9,413.6 L219.2,413.6 L219.2,422.4 L214.9,422.4 Z  '/>	<path stroke='rgb(148,   0, 211)'  d='M219.2,422.4 L219.2,417.4 L223.4,417.4 L223.4,422.4 L219.2,422.4 Z  '/>	<path stroke='rgb(148,   0, 211)'  d='M223.4,422.4 L223.4,415.9 L227.7,415.9 L227.7,422.4 L223.4,422.4 Z  '/>	<path stroke='rgb(148,   0, 211)'  d='M227.7,422.4 L227.7,415.9 L231.9,415.9 L231.9,422.4 L227.7,422.4 Z  '/>	<path stroke='rgb(148,   0, 211)'  d='M231.9,422.4 L231.9,415.9 L236.2,415.9 L236.2,422.4 L231.9,422.4 Z  '/>	<path stroke='rgb(148,   0, 211)'  d='M236.2,422.4 L236.2,417.5 L240.5,417.5 L240.5,422.4 L236.2,422.4 Z  '/>	<path stroke='rgb(148,   0, 211)'  d='M240.5,422.4 L240.5,415.9 L244.7,415.9 L244.7,422.4 L240.5,422.4 Z  '/>	<path stroke='rgb(148,   0, 211)'  d='M244.7,422.4 L244.7,415.9 L249.0,415.9 L249.0,422.4 L244.7,422.4 Z  '/>	<path stroke='rgb(148,   0, 211)'  d='M249.0,422.4 L249.0,417.7 L253.2,417.7 L253.2,422.4 L249.0,422.4 Z  '/>	<path stroke='rgb(148,   0, 211)'  d='M253.2,422.4 L253.2,319.1 L257.5,319.1 L257.5,422.4 L253.2,422.4 Z  '/>	<path stroke='rgb(148,   0, 211)'  d='M257.5,422.4 L257.5,408.2 L261.8,408.2 L261.8,422.4 L257.5,422.4 Z  '/>	<path stroke='rgb(148,   0, 211)'  d='M261.8,422.4 L261.8,396.8 L266.0,396.8 L266.0,422.4 L261.8,422.4 Z  '/>	<path stroke='rgb(148,   0, 211)'  d='M266.0,422.4 L266.0,333.5 L270.3,333.5 L270.3,422.4 L266.0,422.4 Z  '/>	<path stroke='rgb(148,   0, 211)'  d='M270.3,422.4 L270.3,400.5 L274.6,400.5 L274.6,422.4 L270.3,422.4 Z  '/>	<path stroke='rgb(148,   0, 211)'  d='M274.6,422.4 L274.6,414.1 L278.8,414.1 L278.8,422.4 L274.6,422.4 Z  '/>	<path stroke='rgb(148,   0, 211)'  d='M278.8,422.4 L278.8,416.2 L283.1,416.2 L283.1,422.4 L278.8,422.4 Z  '/>	<path stroke='rgb(148,   0, 211)'  d='M283.1,422.4 L283.1,383.0 L287.3,383.0 L287.3,422.4 L283.1,422.4 Z  '/>	<path stroke='rgb(148,   0, 211)'  d='M287.3,422.4 L287.3,416.2 L291.6,416.2 L291.6,422.4 L287.3,422.4 Z  '/>	<path stroke='rgb(148,   0, 211)'  d='M291.6,422.4 L291.6,413.4 L295.9,413.4 L295.9,422.4 L291.6,422.4 Z  '/>	<path stroke='rgb(148,   0, 211)'  d='M295.9,422.4 L295.9,415.9 L300.1,415.9 L300.1,422.4 L295.9,422.4 Z  '/>	<path stroke='rgb(148,   0, 211)'  d='M300.1,422.4 L300.1,415.8 L304.4,415.8 L304.4,422.4 L300.1,422.4 Z  '/>	<path stroke='rgb(148,   0, 211)'  d='M304.4,422.4 L304.4,408.8 L308.6,408.8 L308.6,422.4 L304.4,422.4 Z  '/>	<path stroke='rgb(148,   0, 211)'  d='M308.6,422.4 L308.6,417.9 L312.9,417.9 L312.9,422.4 L308.6,422.4 Z  '/>	<path stroke='rgb(148,   0, 211)'  d='M312.9,422.4 L312.9,418.1 L317.2,418.1 L317.2,422.4 L312.9,422.4 Z  '/>	<path stroke='rgb(148,   0, 211)'  d='M317.2,422.4 L317.2,397.9 L321.4,397.9 L321.4,422.4 L317.2,422.4 Z  '/>	<path stroke='rgb(148,   0, 211)'  d='M321.4,422.4 L321.4,411.8 L325.7,411.8 L325.7,422.4 L321.4,422.4 Z  '/>	<path stroke='rgb(148,   0, 211)'  d='M325.7,422.4 L325.7,415.3 L330.0,415.3 L330.0,422.4 L325.7,422.4 Z  '/>	<path stroke='rgb(148,   0, 211)'  d='M330.0,422.4 L330.0,412.1 L334.2,412.1 L334.2,422.4 L330.0,422.4 Z  '/>	<path stroke='rgb(148,   0, 211)'  d='M334.2,422.4 L334.2,414.5 L338.5,414.5 L338.5,422.4 L334.2,422.4 Z  '/>	<path stroke='rgb(148,   0, 211)'  d='M338.5,422.4 L338.5,412.6 L342.7,412.6 L342.7,422.4 L338.5,422.4 Z  '/>	<path stroke='rgb(148,   0, 211)'  d='M342.7,422.4 L342.7,415.0 L347.0,415.0 L347.0,422.4 L342.7,422.4 Z  '/>	<path stroke='rgb(148,   0, 211)'  d='M347.0,422.4 L347.0,412.7 L351.3,412.7 L351.3,422.4 L347.0,422.4 Z  '/>	<path stroke='rgb(148,   0, 211)'  d='M351.3,422.4 L351.3,415.2 L355.5,415.2 L355.5,422.4 L351.3,422.4 Z  '/>	<path stroke='rgb(148,   0, 211)'  d='M355.5,422.4 L355.5,412.2 L359.8,412.2 L359.8,422.4 L355.5,422.4 Z  '/>	<path stroke='rgb(148,   0, 211)'  d='M359.8,422.4 L359.8,415.1 L364.0,415.1 L364.0,422.4 L359.8,422.4 Z  '/>	<path stroke='rgb(148,   0, 211)'  d='M364.0,422.4 L364.0,412.6 L368.3,412.6 L368.3,422.4 L364.0,422.4 Z  '/>	<path stroke='rgb(148,   0, 211)'  d='M368.3,422.4 L368.3,415.1 L372.6,415.1 L372.6,422.4 L368.3,422.4 Z  '/>	<path stroke='rgb(148,   0, 211)'  d='M372.6,422.4 L372.6,412.8 L376.8,412.8 L376.8,422.4 L372.6,422.4 Z  '/>	<path stroke='rgb(148,   0, 211)'  d='M376.8,422.4 L376.8,415.1 L381.1,415.1 L381.1,422.4 L376.8,422.4 Z  '/>	<path stroke='rgb(148,   0, 211)'  d='M381.1,422.4 L381.1,412.6 L385.4,412.6 L385.4,422.4 L381.1,422.4 Z  '/>	<path stroke='rgb(148,   0, 211)'  d='M385.4,422.4 L385.4,415.1 L389.6,415.1 L389.6,422.4 L385.4,422.4 Z  '/>	<path stroke='rgb(148,   0, 211)'  d='M389.6,422.4 L389.6,412.7 L393.9,412.7 L393.9,422.4 L389.6,422.4 Z  '/>	<path stroke='rgb(148,   0, 211)'  d='M393.9,422.4 L393.9,415.1 L398.1,415.1 L398.1,422.4 L393.9,422.4 Z  '/>	<path stroke='rgb(148,   0, 211)'  d='M398.1,422.4 L398.1,412.6 L402.4,412.6 L402.4,422.4 L398.1,422.4 Z  '/>	<path stroke='rgb(148,   0, 211)'  d='M402.4,422.4 L402.4,415.0 L406.7,415.0 L406.7,422.4 L402.4,422.4 Z  '/>	<path stroke='rgb(148,   0, 211)'  d='M406.7,422.4 L406.7,412.6 L410.9,412.6 L410.9,422.4 L406.7,422.4 Z  '/>	<path stroke='rgb(148,   0, 211)'  d='M410.9,422.4 L410.9,415.1 L415.2,415.1 L415.2,422.4 L410.9,422.4 Z  '/>	<path stroke='rgb(148,   0, 211)'  d='M415.2,422.4 L415.2,412.6 L419.4,412.6 L419.4,422.4 L415.2,422.4 Z  '/>	<path stroke='rgb(148,   0, 211)'  d='M419.4,422.4 L419.4,415.0 L423.7,415.0 L423.7,422.4 L419.4,422.4 Z  '/>	<path stroke='rgb(148,   0, 211)'  d='M423.7,422.4 L423.7,415.0 L428.0,415.0 L428.0,422.4 L423.7,422.4 Z  '/>	<path stroke='rgb(148,   0, 211)'  d='M428.0,422.4 L428.0,412.7 L432.2,412.7 L432.2,422.4 L428.0,422.4 Z  '/>	<path stroke='rgb(148,   0, 211)'  d='M432.2,422.4 L432.2,415.1 L436.5,415.1 L436.5,422.4 L432.2,422.4 Z  '/>	<path stroke='rgb(148,   0, 211)'  d='M436.5,422.4 L436.5,413.8 L440.8,413.8 L440.8,422.4 L436.5,422.4 Z  '/>	<path stroke='rgb(148,   0, 211)'  d='M440.8,422.4 L440.8,416.9 L445.0,416.9 L445.0,422.4 L440.8,422.4 Z  '/>	<path stroke='rgb(148,   0, 211)'  d='M445.0,422.4 L445.0,412.6 L449.3,412.6 L449.3,422.4 L445.0,422.4 Z  '/>	<path stroke='rgb(148,   0, 211)'  d='M449.3,422.4 L449.3,415.1 L453.5,415.1 L453.5,422.4 L449.3,422.4 Z  '/>	<path stroke='rgb(148,   0, 211)'  d='M453.5,422.4 L453.5,412.7 L457.8,412.7 L457.8,422.4 L453.5,422.4 Z  '/>	<path stroke='rgb(148,   0, 211)'  d='M457.8,422.4 L457.8,415.0 L462.1,415.0 L462.1,422.4 L457.8,422.4 Z  '/>	<path stroke='rgb(148,   0, 211)'  d='M462.1,422.4 L462.1,415.0 L466.3,415.0 L466.3,422.4 L462.1,422.4 Z  '/>	<path stroke='rgb(148,   0, 211)'  d='M466.3,422.4 L466.3,412.6 L470.6,412.6 L470.6,422.4 L466.3,422.4 Z  '/>	<path stroke='rgb(148,   0, 211)'  d='M470.6,422.4 L470.6,415.1 L474.9,415.1 L474.9,422.4 L470.6,422.4 Z  '/>	<path stroke='rgb(148,   0, 211)'  d='M474.9,422.4 L474.9,412.7 L479.1,412.7 L479.1,422.4 L474.9,422.4 Z  '/>	<path stroke='rgb(148,   0, 211)'  d='M479.1,422.4 L479.1,415.1 L483.4,415.1 L483.4,422.4 L479.1,422.4 Z  '/>	<path stroke='rgb(148,   0, 211)'  d='M483.4,422.4 L483.4,412.5 L487.6,412.5 L487.6,422.4 L483.4,422.4 Z  '/>	<path stroke='rgb(148,   0, 211)'  d='M487.6,422.4 L487.6,407.9 L491.9,407.9 L491.9,422.4 L487.6,422.4 Z  '/>	<path stroke='rgb(148,   0, 211)'  d='M491.9,422.4 L491.9,413.1 L496.2,413.1 L496.2,422.4 L491.9,422.4 Z  '/>	<path stroke='rgb(148,   0, 211)'  d='M496.2,422.4 L496.2,416.6 L500.4,416.6 L500.4,422.4 L496.2,422.4 Z  '/></g>
	</g>
	<g id="gnuplot_plot_2" ><title>wget2</title>
<g fill="none" color="black" stroke="currentColor" stroke-width="1.00" stroke-linecap="butt" stroke-linejoin="miter">
	<g transform="translate(507.9,166.0)" stroke="none" fill="black" font-family="Arial" font-size="12.00"  text-anchor="end">
		<text><tspan font-family="Arial" >wget2</tspan></text>
	</g>
</g>
<g fill="none" color="black" stroke="currentColor" stroke-width="1.00" stroke-linecap="butt" stroke-linejoin="miter">
	<path stroke='rgb(  0, 158, 115)'  d='M516.2,166.6 L558.4,166.6 L558.4,157.6 L516.2,157.6 L516.2,166.6 Z  '/>	<path stroke='rgb(  0, 158, 115)'  d='M63.6,422.4 L63.6,414.0 L65.7,414.0 L65.7,422.4 L63.6,422.4 Z  '/>	<path stroke='rgb(  0, 158, 115)'  d='M65.7,422.4 L65.7,282.2 L70.0,282.2 L70.0,422.4 L65.7,422.4 Z  '/>	<path stroke='rgb(  0, 158, 115)'  d='M70.0,422.4 L70.0,169.5 L74.3,169.5 L74.3,422.4 L70.0,422.4 Z  '/>	<path stroke='rgb(  0, 158, 115)'  d='M74.3,422.4 L74.3,292.8 L78.5,292.8 L78.5,422.4 L74.3,422.4 Z  '/>	<path stroke='rgb(  0, 158, 115)'  d='M78.5,422.4 L78.5,340.5 L82.8,340.5 L82.8,422.4 L78.5,422.4 Z  '/>	<path stroke='rgb(  0, 158, 115)'  d='M82.8,422.4 L82.8,375.9 L87.0,375.9 L87.0,422.4 L82.8,422.4 Z  '/>	<path stroke='rgb(  0, 158, 115)'  d='M87.0,422.4 L87.0,391.1 L91.3,391.1 L91.3,422.4 L87.0,422.4 Z  '/>	<path stroke='rgb(  0, 158, 115)'  d='M91.3,422.4 L91.3,373.4 L95.6,373.4 L95.6,422.4 L91.3,422.4 Z  '/>	<path stroke='rgb(  0, 158, 115)'  d='M95.6,422.4 L95.6,402.4 L99.8,402.4 L99.8,422.4 L95.6,422.4 Z  '/>	<path stroke='rgb(  0, 158, 115)'  d='M99.8,422.4 L99.8,372.3 L104.1,372.3 L104.1,422.4 L99.8,422.4 Z  '/></g>
	</g>
<g fill="none" color="white" stroke="rgb(  0, 158, 115)" stroke-width="2.00" stroke-linecap="butt" stroke-linejoin="miter">
</g>
<g fill="none" color="black" stroke="currentColor" stroke-width="2.00" stroke-linecap="butt" stroke-linejoin="miter">
</g>
<g fill="none" color="black" stroke="black" stroke-width="1.00" stroke-linecap="butt" stroke-linejoin="miter">
</g>
<g fill="none" color="black" stroke="currentColor" stroke-width="1.00" stroke-linecap="butt" stroke-linejoin="miter">
	<path stroke='black'  d='M63.6,126.1 L63.6,422.4 L575.0,422.4 L575.0,126.1 L63.6,126.1 Z  '/></g>
<g fill="none" color="black" stroke="currentColor" stroke-width="1.00" stroke-linecap="butt" stroke-linejoin="miter">
</g>
</g>
</svg>

